^C:\USERS\МАКСИМ\DOCUMENTS\VISUAL STUDIO 2015\PROJECTS\OS-LABS\LAB3\TOOLHELP\STDAFX.CPP
C:\USERS\Максим\DOCUMENTS\VISUAL STUDIO 2015\PROJECTS\OS-LABS\LAB3\TOOLHELP\DEBUG\TOOLHELP.PCH
C:\USERS\Максим\DOCUMENTS\VISUAL STUDIO 2015\PROJECTS\OS-LABS\LAB3\TOOLHELP\DEBUG\VC140.PDB
C:\USERS\Максим\DOCUMENTS\VISUAL STUDIO 2015\PROJECTS\OS-LABS\LAB3\TOOLHELP\DEBUG\VC140.IDB
C:\USERS\Максим\DOCUMENTS\VISUAL STUDIO 2015\PROJECTS\OS-LABS\LAB3\TOOLHELP\DEBUG\STDAFX.OBJ
^C:\USERS\МАКСИМ\DOCUMENTS\VISUAL STUDIO 2015\PROJECTS\OS-LABS\LAB3\TOOLHELP\TOOLHELP.CPP
C:\USERS\Максим\DOCUMENTS\VISUAL STUDIO 2015\PROJECTS\OS-LABS\LAB3\TOOLHELP\DEBUG\VC140.PDB
C:\USERS\Максим\DOCUMENTS\VISUAL STUDIO 2015\PROJECTS\OS-LABS\LAB3\TOOLHELP\DEBUG\VC140.IDB
C:\USERS\Максим\DOCUMENTS\VISUAL STUDIO 2015\PROJECTS\OS-LABS\LAB3\TOOLHELP\DEBUG\TOOLHELP.OBJ
