^C:\USERS\МАКСИМ\DOCUMENTS\VISUAL STUDIO 2015\PROJECTS\OS-LABS\LAB5\PHILOSOPHERS\STDAFX.CPP
C:\USERS\Максим\DOCUMENTS\VISUAL STUDIO 2015\PROJECTS\OS-LABS\LAB5\PHILOSOPHERS\DEBUG\PHILOSOPHERS.PCH
C:\USERS\Максим\DOCUMENTS\VISUAL STUDIO 2015\PROJECTS\OS-LABS\LAB5\PHILOSOPHERS\DEBUG\VC140.PDB
C:\USERS\Максим\DOCUMENTS\VISUAL STUDIO 2015\PROJECTS\OS-LABS\LAB5\PHILOSOPHERS\DEBUG\VC140.IDB
C:\USERS\Максим\DOCUMENTS\VISUAL STUDIO 2015\PROJECTS\OS-LABS\LAB5\PHILOSOPHERS\DEBUG\STDAFX.OBJ
^C:\USERS\МАКСИМ\DOCUMENTS\VISUAL STUDIO 2015\PROJECTS\OS-LABS\LAB5\PHILOSOPHERS\PHILOSOPHERS.CPP
C:\USERS\Максим\DOCUMENTS\VISUAL STUDIO 2015\PROJECTS\OS-LABS\LAB5\PHILOSOPHERS\DEBUG\VC140.PDB
C:\USERS\Максим\DOCUMENTS\VISUAL STUDIO 2015\PROJECTS\OS-LABS\LAB5\PHILOSOPHERS\DEBUG\VC140.IDB
C:\USERS\Максим\DOCUMENTS\VISUAL STUDIO 2015\PROJECTS\OS-LABS\LAB5\PHILOSOPHERS\DEBUG\PHILOSOPHERS.OBJ
