^C:\USERS\МАКСИМ\DOCUMENTS\VISUAL STUDIO 2015\PROJECTS\OS-LABS\LAB5\PHILOSOPHERS\DEBUG\PHILOSOPHERS.OBJ|C:\USERS\МАКСИМ\DOCUMENTS\VISUAL STUDIO 2015\PROJECTS\OS-LABS\LAB5\PHILOSOPHERS\DEBUG\STDAFX.OBJ
C:\USERS\Максим\DOCUMENTS\VISUAL STUDIO 2015\PROJECTS\OS-LABS\LAB5\DEBUG\PHILOSOPHERS.ILK
C:\USERS\Максим\DOCUMENTS\VISUAL STUDIO 2015\PROJECTS\OS-LABS\LAB5\DEBUG\PHILOSOPHERS.EXE
C:\USERS\МАКСИМ\DOCUMENTS\VISUAL STUDIO 2015\PROJECTS\OS-LABS\LAB5\DEBUG\PHILOSOPHERS.PDB
