^C:\USERS\МАКСИМ\DOCUMENTS\VISUAL STUDIO 2015\PROJECTS\OS-LABS\LAB4\CONSUMER\DEBUG\CONSUMER.OBJ|C:\USERS\МАКСИМ\DOCUMENTS\VISUAL STUDIO 2015\PROJECTS\OS-LABS\LAB4\CONSUMER\DEBUG\STDAFX.OBJ
C:\USERS\Максим\DOCUMENTS\VISUAL STUDIO 2015\PROJECTS\OS-LABS\LAB4\DEBUG\CONSUMER.ILK
C:\USERS\Максим\DOCUMENTS\VISUAL STUDIO 2015\PROJECTS\OS-LABS\LAB4\DEBUG\CONSUMER.EXE
C:\USERS\МАКСИМ\DOCUMENTS\VISUAL STUDIO 2015\PROJECTS\OS-LABS\LAB4\DEBUG\CONSUMER.PDB
