^C:\USERS\MAX\DOCUMENTS\VISUAL STUDIO 2013\PROJECTS\LAB2OS\LAB2OS\STDAFX.CPP
/c /ZI /nologo /W3 /WX- /sdl /Od /Oy- /D WIN32 /D _DEBUG /D _CONSOLE /D _LIB /D _UNICODE /D UNICODE /D _CRT_SECURE_NO_WARNINGS /D _CRT_NON_CONFORMING_SWPRINTFS /Gm /EHsc /RTC1 /MDd /GS /fp:precise /Zc:wchar_t /Zc:forScope /Yc"stdafx.h" /Fp"DEBUG\LAB2OS.PCH" /Fo"DEBUG\\" /Fd"DEBUG\VC120.PDB" /Gd /TP /analyze- C:\USERS\MAX\DOCUMENTS\VISUAL STUDIO 2013\PROJECTS\LAB2OS\LAB2OS\STDAFX.CPP
^C:\USERS\MAX\DOCUMENTS\VISUAL STUDIO 2013\PROJECTS\LAB2OS\LAB2OS\LAB2OS.CPP
/c /ZI /nologo /W3 /WX- /sdl /Od /Oy- /D WIN32 /D _DEBUG /D _CONSOLE /D _LIB /D _UNICODE /D UNICODE /D _CRT_SECURE_NO_WARNINGS /D _CRT_NON_CONFORMING_SWPRINTFS /Gm /EHsc /RTC1 /MDd /GS /fp:precise /Zc:wchar_t /Zc:forScope /Yu"stdafx.h" /Fp"DEBUG\LAB2OS.PCH" /Fo"DEBUG\\" /Fd"DEBUG\VC120.PDB" /Gd /TP /analyze- C:\USERS\MAX\DOCUMENTS\VISUAL STUDIO 2013\PROJECTS\LAB2OS\LAB2OS\LAB2OS.CPP
^C:\USERS\MAX\DOCUMENTS\VISUAL STUDIO 2013\PROJECTS\LAB2OS\LAB2OS\LABOS6.CPP
/c /ZI /nologo /W3 /WX- /sdl /Od /Oy- /D WIN32 /D _DEBUG /D _CONSOLE /D _LIB /D _UNICODE /D UNICODE /D _CRT_SECURE_NO_WARNINGS /D _CRT_NON_CONFORMING_SWPRINTFS /Gm /EHsc /RTC1 /MDd /GS /fp:precise /Zc:wchar_t /Zc:forScope /Yu"stdafx.h" /Fp"DEBUG\LAB2OS.PCH" /Fo"DEBUG\\" /Fd"DEBUG\VC120.PDB" /Gd /TP /analyze- C:\USERS\MAX\DOCUMENTS\VISUAL STUDIO 2013\PROJECTS\LAB2OS\LAB2OS\LABOS6.CPP
^C:\USERS\MAX\DOCUMENTS\VISUAL STUDIO 2013\PROJECTS\LAB2OS\LAB2OS\MAILBOX.CPP
/c /ZI /nologo /W3 /WX- /sdl /Od /Oy- /D WIN32 /D _DEBUG /D _CONSOLE /D _LIB /D _UNICODE /D UNICODE /D _CRT_SECURE_NO_WARNINGS /D _CRT_NON_CONFORMING_SWPRINTFS /Gm /EHsc /RTC1 /MDd /GS /fp:precise /Zc:wchar_t /Zc:forScope /Yu"stdafx.h" /Fp"DEBUG\LAB2OS.PCH" /Fo"DEBUG\\" /Fd"DEBUG\VC120.PDB" /Gd /TP /analyze- C:\USERS\MAX\DOCUMENTS\VISUAL STUDIO 2013\PROJECTS\LAB2OS\LAB2OS\MAILBOX.CPP
