^C:\USERS\МАКСИМ\DOCUMENTS\VISUAL STUDIO 2015\PROJECTS\OS-LABS\LAB4\CHILDPROCESS\DEBUG\CHILDPROCESS.OBJ|C:\USERS\МАКСИМ\DOCUMENTS\VISUAL STUDIO 2015\PROJECTS\OS-LABS\LAB4\CHILDPROCESS\DEBUG\STDAFX.OBJ
C:\USERS\Максим\DOCUMENTS\VISUAL STUDIO 2015\PROJECTS\OS-LABS\LAB4\DEBUG\CHILDPROCESS.ILK
C:\USERS\Максим\DOCUMENTS\VISUAL STUDIO 2015\PROJECTS\OS-LABS\LAB4\DEBUG\CHILDPROCESS.EXE
C:\USERS\МАКСИМ\DOCUMENTS\VISUAL STUDIO 2015\PROJECTS\OS-LABS\LAB4\DEBUG\CHILDPROCESS.PDB
