^C:\USERS\МАКСИМ\DOCUMENTS\VISUAL STUDIO 2015\PROJECTS\OS-LABS\LAB4\PRODUCER\STDAFX.CPP
/c /ZI /nologo /W3 /WX- /sdl /Od /Oy- /D WIN32 /D _DEBUG /D _CONSOLE /D _UNICODE /D UNICODE /Gm /EHsc /RTC1 /MDd /GS /fp:precise /Zc:wchar_t /Zc:forScope /Zc:inline /Yc"stdafx.h" /Fp"DEBUG\PRODUCER.PCH" /Fo"DEBUG\\" /Fd"DEBUG\VC140.PDB" /Gd /TP /analyze- C:\USERS\МАКСИМ\DOCUMENTS\VISUAL STUDIO 2015\PROJECTS\OS-LABS\LAB4\PRODUCER\STDAFX.CPP
^C:\USERS\МАКСИМ\DOCUMENTS\VISUAL STUDIO 2015\PROJECTS\OS-LABS\LAB4\PRODUCER\PRODUCER.CPP
/c /ZI /nologo /W3 /WX- /sdl /Od /Oy- /D WIN32 /D _DEBUG /D _CONSOLE /D _UNICODE /D UNICODE /Gm /EHsc /RTC1 /MDd /GS /fp:precise /Zc:wchar_t /Zc:forScope /Zc:inline /Yu"stdafx.h" /Fp"DEBUG\PRODUCER.PCH" /Fo"DEBUG\\" /Fd"DEBUG\VC140.PDB" /Gd /TP /analyze- C:\USERS\МАКСИМ\DOCUMENTS\VISUAL STUDIO 2015\PROJECTS\OS-LABS\LAB4\PRODUCER\PRODUCER.CPP
